<svg xmlns="http://www.w3.org/2000/svg" fill = "#006286" viewBox="0 0 56.38 42.29">
    <path d="M30.81,1.59a6.08,6.08,0,1,0,6.08,6.08A6.08,6.08,0,0,0,30.81,1.59Zm.55,9.57V12H30.25v-.72a4.48,4.48,0,0,1-1.83-.43l.32-1.29a4,4,0,0,0,1.75.43c.72,0,1.11-.3,1.11-.75s-.33-.68-1.17-1c-1.16-.41-1.92-1.05-1.92-2.07a2.06,2.06,0,0,1,1.75-2V3.37h1.11v.73a3.93,3.93,0,0,1,1.55.35L32.56,5.7a3.26,3.26,0,0,0-1.45-.33c-.68,0-1,.32-1,.67s.38.64,1.29,1c1.23.45,1.8,1.1,1.8,2.08A2.09,2.09,0,0,1,31.36,11.16Z"/>
    <path d="M30.81,0a7.67,7.67,0,1,0,7.67,7.67A7.67,7.67,0,0,0,30.81,0Zm0,14.28a6.61,6.61,0,1,1,6.61-6.61A6.61,6.61,0,0,1,30.81,14.28Z"/>
    <path d="M56.3,20.29s-.07,0-.07.05l0,.07c-.33.9-3.57,2.75-5.92,1.22,0,0,2.73-1.45,2.73-5.62a1.76,1.76,0,0,0-1.17-1.61c-4-1.18-4.25,4.15-3.9,5.6a4,4,0,0,0,.12.44,2.6,2.6,0,0,0,.32.61c-.21.12-.43.24-.65.35a10.12,10.12,0,0,1-1.6.6c-.2-4.12-3.12-7.82-7.28-10.47a8.92,8.92,0,0,1-17-3.86c0-.06,0-.13,0-.19A22.7,22.7,0,0,0,16.56,8.7C14.79,6.18,8.21,5.76,7.33,6.23s4.5,4.87,3.64,5.55a15,15,0,0,0-4.87,6.54c-2.59.19-7.19-.26-5.87,3.7,1.1,3.31.34,5.75,3.62,5.84.67,0,1.58,0,2.62-.07a16.1,16.1,0,0,0,6.52,7l-.9,4.77a1,1,0,0,0,.79,1.16l4.76.9a1,1,0,0,0,1.16-.79l.67-3.52a23.65,23.65,0,0,0,4.94.52,50.55,50.55,0,0,0,8.31-.68l-.57,3a1,1,0,0,0,.79,1.16l4.76.9a1,1,0,0,0,1.16-.79l1.5-8a14.08,14.08,0,0,0,5.74-10.17,10.84,10.84,0,0,0,2.19-.63,9.26,9.26,0,0,0,1.32-.66l.17.09a4.77,4.77,0,0,0,6.55-1.69.32.32,0,0,0,0-.08s0-.07,0-.08Zm-43.87-1A1.62,1.62,0,1,1,14,17.67,1.62,1.62,0,0,1,12.43,19.28ZM49,20.61c-.63-.71.47-6,2.2-4.91h0C52.31,17.28,49.79,20.3,49,20.61Z"/>
</svg>