<svg xmlns="http://www.w3.org/2000/svg" fill="#fff" viewBox="0 0 27 27">
    <path d="M13.5,0A13.5,13.5,0,1,0,27,13.5,13.5,13.5,0,0,0,13.5,0ZM11.07,22.07V4.93l8.57,8.57Z"/>
    <rect width="27" height="27" style="fill:none"/>
</svg>