<svg xmlns="http://www.w3.org/2000/svg" fill = "#006286" viewBox="0 0 33 33">
    <path d="M30.5,33H2.5A2.5,2.5,0,0,1,0,30.5V2.5A2.5,2.5,0,0,1,2.5,0h28A2.5,2.5,0,0,1,33,2.5v28A2.5,2.5,0,0,1,30.5,33ZM2.5,1A1.5,1.5,0,0,0,1,2.5v28A1.5,1.5,0,0,0,2.5,32h28A1.5,1.5,0,0,0,32,30.5V2.5A1.5,1.5,0,0,0,30.5,1Z"/>
    <path d="M22.91,14.57a9.39,9.39,0,0,0-12.85,0l-1.35-1.4a11.3,11.3,0,0,1,15.58-.05Z"/>
    <path d="M12.24,16.74l-1.36-1.43a8.16,8.16,0,0,1,11.26,0l-1.41,1.4a6.2,6.2,0,0,0-8.49.06Z"/>
    <path d="M18.5,21a2,2,0,1,1-2-2A2,2,0,0,1,18.5,21Z"/>
    <path d="M14.31,18.8,13,17.43a5.07,5.07,0,0,1,7,0l-1.36,1.34a3.19,3.19,0,0,0-4.31.06Z"/>
</svg>